{
    "myparamMZD": {
      "method": "uniform",
      "dimension": {
        "low": 15,
        "high": 55
      }
    },
    "myparamEPSILON": {
      "method": "loguniform",
      "dimension": {
        "low": 1e-4,
        "high": 0.1
      }
    }
}
